@startuml

' - PRIVATE
' # PROTECTED
' ~ PACKAGE PRIVATE
' + PUBLIC

' PARAMETERS
skinparam monochrome true
skinparam linetype polyline
skinparam linetype ortho
hide circle
' CUSTOM COMMANDS
!define datatype(x) class x <<datatype>>
!define abstract(x) class x <<abstract>>
!define association(x) class x 

title NF17 - Projet - Bibliothèque

'''''''''''''''''' CLASSES CONCRETES '''''''''''''''''''''
class Editeur {
    nom : varchar {key}
}

class Genre {
    nom : varchar {key}
}

class Langue {
    nom : varchar {key}
}

class Nationalité {
    nom : varchar {key frozen}
}

class Adhésion {
    dateDebut : date
    dateFin : date
}

class Remboursement {
    dateRemboursement : date
    estRembourse()
}

class Exemplaire{
    idExemplaire : int {local key frozen}
    etat :  : enum{neuf, bon, abimé, perdu}
    prix : float
    estDisponible()
}




'''''''''''''''''' CLASSES HERITEES ''''''''''''''''''''''
class Auteur {
}

class Acteur {
}

class Réalisateur {
}

class Compositeur {
}

class Interprète {
}



class Film {
    longueur : int
    synopsis : varchar
    ...
}

class Livre {
    ISBN : int {key frozen}
    résumé : varchar
    ...
}

class Musique {
    longueur : int
    ...
}


class Utilisateur {
    numTel : varchar
    dateNaissance : date
    dateBlackList : date
    estBlackliste()
}
note left: DateBlacklist nullable

class Personnel {
    nom : varchar {key frozen}
}


'''''''''''''''''' CLASSES ABSTRAITE '''''''''''''''''''''


abstract(Contributeur) {
    nom : varchar
    prénom : varchar
    dateNaissance : date
}
note left of Contributeur
(nom, prénom, dateNaissance) {unique}
nom nullable XOR prenom nullable
end note

abstract(Ressource) {
    code : int {key frozen}
    titre : varchar
    dateApparition : date
    codeClass : varchar
}

abstract(PropriétaireCompte) {
    login : varchar {key frozen}
    mdp : varchar
    nom : varchar
    prénom : varchar
    addPostal : varchar
    addMail : varchar
}

note left of PropriétaireCompte
(nom, prénom, addPostal) {key}
(nom, prénom, addMail) {key}
end note


'''''''''''''''''' CLASSES D'ASSOCIATIONS '''''''''''''''''''''
class Prêt {
    datePrêt : date
    dateRendu : date
    dateFin : date
    etatRendu : enum{neuf, bon, abimé, perdu}
    estEnRetard()
    calcNbJoursDeRetard()
}
note left of Prêt: DateRendu nullable


class Réservation{
    dateRéservation : date
}

'''''''''''''''''''''  ASSOCIATIONS  ''''''''''''''''''''''''''
Ressource "*" - "1" Editeur : est édité par >
 Genre "1" - "*" Ressource : est du >
Nationalité "1" --- "*" Contributeur : est >
Utilisateur "1" - "*" Adhésion : possède <
Film "*" -- "1" Langue : est en >
Livre "*" -- "1" Langue : est en >
Auteur "*" -- "*" Livre : a écrit >
Acteur "*" -- "*" Film : a joué dans >
Réalisateur "*" -- "*" Film : a réalisé >
Compositeur "*" -- "*" Musique : a composé >
Interprète "*" -- "*" Musique : a interprété >

Utilisateur "*" -- "*" Exemplaire
(Utilisateur,Exemplaire) .. Prêt

Utilisateur "1..*" -- "*" Ressource
(Utilisateur,Ressource) .. Réservation


Contributeur <|-down-- Auteur
Contributeur <|-down-- Acteur
Contributeur <|-down-- Réalisateur
Contributeur <|-down- Compositeur
Contributeur <|-down- Interprète
Ressource <|-down--- Film
Ressource <|-down--- Livre
Ressource <|-down- Musique
PropriétaireCompte <|-down- Utilisateur
PropriétaireCompte <|-down-- Personnel

Ressource *-up- "1..*" Exemplaire
Exemplaire *-up- "0..1" Remboursement

note "{XOR}" as N1 #white
(PropriétaireCompte,Utilisateur)..N1
N1 .. (PropriétaireCompte,Personnel)

note "{XOR}" as N2 #white
(Ressource,Livre)..N2
N2 .. (Ressource,Film)
(Ressource,Musique)..N2

Langue -[hidden] Film
Prêt --[hidden] Réservation
Ressource -[hidden] Editeur
Genre -[hidden] Ressource
Contributeur -[hidden] Nationalité

@enduml